<Configuration>
  <HLTMPPUApplication>
    <DataSource>
      <HLTDFFileBackend>
        <UID>DataSource-is-DCM</UID>
        <compressionFormat>ZLIB</compressionFormat>
        <compressionLevel>2</compressionLevel>
        <extraL1Robs />
        <fileList>
          <file>/cvmfs/atlas-nightlies.cern.ch/repo/data/data-art/TrigP1Test/data18_13TeV.00360026.physics_EnhancedBias.merge.RAW._lb0151._SFO-1._0001.1</file>
        </fileList>
        <fileOffset>-1</fileOffset>
        <library>DFDcmEmuBackend</library>
        <loopOverFiles>False</loopOverFiles>
        <maxEventRateHz>-1.0</maxEventRateHz>
        <maxInputFullEventSizeMb>5</maxInputFullEventSizeMb>
        <numEvents>-1</numEvents>
        <preload>False</preload>
        <rosHitStatFileName>ros_hitstats</rosHitStatFileName>
        <skipEvents>0</skipEvents>
        <start_id>1</start_id>
      </HLTDFFileBackend>
    </DataSource>
    <DataSourceLibrary>DFDcmEmuBackend</DataSourceLibrary>
    <HLTImplementationLibraries>
      <library>TrigPSC</library>
    </HLTImplementationLibraries>
    <HardTimeout>3600000</HardTimeout>
    <InfoServiceLibrary />
    <UID>HLTMPPy</UID>
    <childLogName>athenaHLT:</childLogName>
    <dontPublishIS>1</dontPublishIS>
    <finalizeTimeout>120</finalizeTimeout>
    <getNextTimeout>1000</getNextTimeout>
    <maximumHltResultMb>32</maximumHltResultMb>
    <numForks>1</numForks>
    <numberOfAthenaMTThreads>1</numberOfAthenaMTThreads>
    <numberOfEventSlots>1</numberOfEventSlots>
    <softTimeoutFraction>0.95</softTimeoutFraction>
  </HLTMPPUApplication>
  <Partition>
    <TriggerConfiguration>
      <TriggerConfiguration>
        <L1TriggerConfiguration>
          <L1TriggerConfiguration>
            <ConfigureLvl1MenuFrom>DB</ConfigureLvl1MenuFrom>
            <Lvl1BunchGroupKey>0</Lvl1BunchGroupKey>
            <Lvl1PrescaleKey>0</Lvl1PrescaleKey>
            <UID>L1TrigConf</UID>
          </L1TriggerConfiguration>
        </L1TriggerConfiguration>
        <TriggerDBConnection>
          <TriggerDBConnection>
            <Alias>TRIGGERDB</Alias>
            <Name>dummy</Name>
            <Password />
            <Server>TRIGGERDB</Server>
            <SuperMasterKey>0</SuperMasterKey>
            <Type>Coral</Type>
            <User />
          </TriggerDBConnection>
        </TriggerDBConnection>
        <UID>JobOptionsTriggerConfig-1</UID>
        <hlt>
          <HLTImplementationJobOptions>
            <HLTCommonParameters>
              <HLTCommonParameters>
                <jobOptionsSvcType>TrigConf::JobOptionsSvc</jobOptionsSvcType>
                <messageSvcType>TrigMessageSvc</messageSvcType>
              </HLTCommonParameters>
            </HLTCommonParameters>
            <UID>HLTImplementationJobOptions-1</UID>
            <jobOptionsPath>dummy.py</jobOptionsPath>
            <libraries>
              <library>TrigServices</library>
              <library>TrigPSC</library>
            </libraries>
            <logLevels>
              <logLevel>INFO</logLevel>
              <logLevel>ERROR</logLevel>
            </logLevels>
            <postCommands />
            <preCommands>
              <preCommand>_run_number=360026</preCommand>
              <preCommand>_lb_number=151</preCommand>
            </preCommands>
            <pythonSetupFile>TrigPSC/TrigPSCPythonSetup.py</pythonSetupFile>
            <showInclude>false</showInclude>
          </HLTImplementationJobOptions>
        </hlt>
      </TriggerConfiguration>
    </TriggerConfiguration>
    <UID>athenaHLT</UID>
  </Partition>
  <ROS2ROBS />
</Configuration>
<RunParams>
  <T0_project_tag>data18_13TeV</T0_project_tag>
  <beam_energy>6500</beam_energy>
  <beam_type>1</beam_type>
  <det_mask>0000000000000001c10069fffffffff7</det_mask>
  <filename_tag />
  <lumiblock>151</lumiblock>
  <max_events>0</max_events>
  <recording_enabled>0</recording_enabled>
  <run_number>360026</run_number>
  <run_type>Physics</run_type>
  <stream>physics_EnhancedBias</stream>
  <timeEOR>1/1/70 01:00:00</timeEOR>
  <timeSOR>05/09/18 12:30:52.000000</timeSOR>
  <totalTime>0</totalTime>
  <trigger_type>0</trigger_type>
</RunParams>
<Magnets>
  <SolenoidCurrent>
    <ts>05/09/18 12:30:52.000000</ts>
    <value>7730</value>
  </SolenoidCurrent>
  <ToroidsCurrent>
    <ts>05/09/18 12:30:52.000000</ts>
    <value>20400</value>
  </ToroidsCurrent>
</Magnets>
